Name of University,Year,Program Level,Male,Female,Total
University of Dhaka,2017,Bachelors,14498.0,8676.0,23174.0
University of Rajshahi,2017,Bachelors,542642.0,272092.0,814734.0
"Bangladesh Agricultural University, Mymensingh",2017,Bachelors,2782.0,2219.0,5001.0
Bangladesh University of Engineering and Technology,2017,Bachelors,3619.0,929.0,4548.0
University of Chittagong,2017,Bachelors,12929.0,7531.0,20460.0
Jahangirnagar University,2017,Bachelors,7024.0,4029.0,11053.0
Islamic University,2017,Bachelors,8361.0,3955.0,12316.0
Shahjalal University of Science & Technology,2017,Bachelors,8913.0,2514.0,11427.0
Khulna University,2017,Bachelors,2617.0,2046.0,4663.0
International University of Business Agriculture & Technology,2017,Bachelors,6318.0,2120.0,8438.0
"University of Science and Technology, Chittagong",2017,Bachelors,2270.0,1708.0,3978.0
Bangladesh Open University,2017,Bachelors,75634.0,58448.0,134082.0
North South University,2017,Bachelors,11525.0,5304.0,16829.0
National University,2017,Bachelors,1097068.0,964495.0,2061563.0
University of Dhaka,2017,Masters,2867.0,1858.0,4725.0
University of Rajshahi,2017,Masters,450276.0,225209.0,675485.0
"Bangladesh Agricultural University, Mymensingh",2017,Masters,0.0,0.0,0.0
Bangladesh University of Engineering and Technology,2017,Masters,3095.0,855.0,3950.0
University of Chittagong,2017,Masters,1788.0,690.0,2478.0
Jahangirnagar University,2017,Masters,1568.0,899.0,2467.0
Islamic University,2017,Masters,1882.0,807.0,2689.0
Shahjalal University of Science & Technology,2017,Masters,959.0,461.0,1420.0
Khulna University,2017,Masters,87.0,61.0,148.0
International University of Business Agriculture & Technology,2017,Masters,91.0,116.0,207.0
"University of Science and Technology, Chittagong",2017,Masters,365.0,62.0,427.0
Bangladesh Open University,2017,Masters,2265.0,749.0,3014.0
North South University,2017,Masters,1426.0,1081.0,2507.0
National University,2017,Masters,125684.0,91422.0,217106.0
University of Dhaka,2017,MPhil,125.0,131.0,256.0
University of Rajshahi,2017,MPhil,0.0,0.0,0.0
"Bangladesh Agricultural University, Mymensingh",2017,MPhil,0.0,0.0,0.0
Bangladesh University of Engineering and Technology,2017,MPhil,85.0,53.0,138.0
University of Chittagong,2017,MPhil,0.0,0.0,0.0
Jahangirnagar University,2017,MPhil,98.0,48.0,146.0
Islamic University,2017,MPhil,0.0,0.0,0.0
Shahjalal University of Science & Technology,2017,MPhil,98.0,37.0,135.0
Khulna University,2017,MPhil,0.0,0.0,0.0
International University of Business Agriculture & Technology,2017,MPhil,0.0,0.0,0.0
"University of Science and Technology, Chittagong",2017,MPhil,0.0,0.0,0.0
Bangladesh Open University,2017,MPhil,0.0,0.0,0.0
North South University,2017,MPhil,0.0,0.0,0.0
National University,2017,MPhil,21.0,9.0,30.0
University of Dhaka,2017,PhD,163.0,108.0,271.0
University of Rajshahi,2017,PhD,0.0,0.0,0.0
"Bangladesh Agricultural University, Mymensingh",2017,PhD,0.0,0.0,0.0
Bangladesh University of Engineering and Technology,2017,PhD,103.0,26.0,129.0
University of Chittagong,2017,PhD,0.0,0.0,0.0
Jahangirnagar University,2017,PhD,160.0,72.0,232.0
Islamic University,2017,PhD,0.0,0.0,0.0
Shahjalal University of Science & Technology,2017,PhD,54.0,20.0,74.0
Khulna University,2017,PhD,0.0,0.0,0.0
International University of Business Agriculture & Technology,2017,PhD,0.0,0.0,0.0
"University of Science and Technology, Chittagong",2017,PhD,0.0,0.0,0.0
Bangladesh Open University,2017,PhD,0.0,0.0,0.0
North South University,2017,PhD,0.0,0.0,0.0
National University,2017,PhD,4.0,1.0,5.0
University of Dhaka,2017,Others,0.0,0.0,0.0
University of Rajshahi,2017,Others,0.0,0.0,0.0
"Bangladesh Agricultural University, Mymensingh",2017,Others,0.0,0.0,0.0
Bangladesh University of Engineering and Technology,2017,Others,91.0,10.0,101.0
University of Chittagong,2017,Others,0.0,0.0,0.0
Jahangirnagar University,2017,Others,0.0,0.0,0.0
Islamic University,2017,Others,0.0,0.0,0.0
Shahjalal University of Science & Technology,2017,Others,0.0,0.0,0.0
Khulna University,2017,Others,0.0,0.0,0.0
International University of Business Agriculture & Technology,2017,Others,4.0,0.0,4.0
"University of Science and Technology, Chittagong",2017,Others,0.0,0.0,0.0
Bangladesh Open University,2017,Others,169235.0,126872.0,296107.0
North South University,2017,Others,0.0,0.0,0.0
National University,2017,Others,0.0,0.0,0.0
Independent University Bangladesh,2017,Bachelors,3607.0,1599.0,5206.0
Central Women's University,2017,Bachelors,0.0,289.0,289.0
American International University- Bangladesh (AIUB),2017,Bachelors,6644.0,1980.0,8624.0
Dhaka International University,2017,Bachelors,5010.0,886.0,5896.0
Ahsanullah University of Science and Technology,2017,Bachelors,5014.0,1416.0,6430.0
"International Islamic University, Chittagong",2017,Bachelors,5219.0,3317.0,8536.0
Queens University,2017,Bachelors,0.0,0.0,0.0
The People's University of Bangladesh,2017,Bachelors,2035.0,410.0,2445.0
Asian University of Bangladesh,2017,Bachelors,3446.0,1338.0,4784.0
University of Asia Pacific,2017,Bachelors,3347.0,1571.0,4918.0
East West University,2017,Bachelors,6015.0,3973.0,9988.0
Bangabandhu Sheikh Mujib Medical University,2017,Bachelors,5.0,25.0,30.0
Bangabandhu Sheikh Mujibur Rahman Agricultural University,2017,Bachelors,351.0,441.0,792.0
Gono Bishwabidyalay,2017,Bachelors,2262.0,1414.0,3676.0
Independent University Bangladesh,2017,Masters,414.0,112.0,526.0
Central Women's University,2017,Masters,0.0,0.0,0.0
American International University- Bangladesh (AIUB),2017,Masters,750.0,388.0,1138.0
Dhaka International University,2017,Masters,1037.0,220.0,1257.0
Ahsanullah University of Science and Technology,2017,Masters,438.0,201.0,639.0
"International Islamic University, Chittagong",2017,Masters,983.0,559.0,1542.0
Queens University,2017,Masters,0.0,0.0,0.0
The People's University of Bangladesh,2017,Masters,304.0,129.0,433.0
Asian University of Bangladesh,2017,Masters,1486.0,466.0,1952.0
University of Asia Pacific,2017,Masters,406.0,246.0,652.0
East West University,2017,Masters,1094.0,852.0,1946.0
Bangabandhu Sheikh Mujib Medical University,2017,Masters,182.0,78.0,260.0
Bangabandhu Sheikh Mujibur Rahman Agricultural University,2017,Masters,159.0,125.0,284.0
Gono Bishwabidyalay,2017,Masters,27.0,30.0,57.0
Independent University Bangladesh,2017,MPhil,0.0,0.0,0.0
Central Women's University,2017,MPhil,0.0,0.0,0.0
American International University- Bangladesh (AIUB),2017,MPhil,0.0,0.0,0.0
Dhaka International University,2017,MPhil,0.0,0.0,0.0
Ahsanullah University of Science and Technology,2017,MPhil,0.0,0.0,0.0
"International Islamic University, Chittagong",2017,MPhil,0.0,0.0,0.0
Queens University,2017,MPhil,0.0,0.0,0.0
The People's University of Bangladesh,2017,MPhil,0.0,0.0,0.0
Asian University of Bangladesh,2017,MPhil,0.0,0.0,0.0
University of Asia Pacific,2017,MPhil,0.0,0.0,0.0
East West University,2017,MPhil,0.0,0.0,0.0
Bangabandhu Sheikh Mujib Medical University,2017,MPhil,0.0,0.0,0.0
Bangabandhu Sheikh Mujibur Rahman Agricultural University,2017,MPhil,0.0,0.0,0.0
Gono Bishwabidyalay,2017,MPhil,0.0,0.0,0.0
Independent University Bangladesh,2017,PhD,0.0,0.0,0.0
Central Women's University,2017,PhD,0.0,0.0,0.0
American International University- Bangladesh (AIUB),2017,PhD,0.0,0.0,0.0
Dhaka International University,2017,PhD,0.0,0.0,0.0
Ahsanullah University of Science and Technology,2017,PhD,0.0,0.0,0.0
"International Islamic University, Chittagong",2017,PhD,0.0,0.0,0.0
Queens University,2017,PhD,0.0,0.0,0.0
The People's University of Bangladesh,2017,PhD,0.0,0.0,0.0
Asian University of Bangladesh,2017,PhD,0.0,0.0,0.0
University of Asia Pacific,2017,PhD,0.0,0.0,0.0
East West University,2017,PhD,0.0,0.0,0.0
Bangabandhu Sheikh Mujib Medical University,2017,PhD,0.0,0.0,0.0
Bangabandhu Sheikh Mujibur Rahman Agricultural University,2017,PhD,53.0,8.0,61.0
Gono Bishwabidyalay,2017,PhD,0.0,0.0,0.0
Independent University Bangladesh,2017,Others,0.0,0.0,0.0
Central Women's University,2017,Others,0.0,0.0,0.0
American International University- Bangladesh (AIUB),2017,Others,0.0,0.0,0.0
Dhaka International University,2017,Others,0.0,0.0,0.0
Ahsanullah University of Science and Technology,2017,Others,0.0,0.0,0.0
"International Islamic University, Chittagong",2017,Others,88.0,78.0,166.0
Queens University,2017,Others,0.0,0.0,0.0
The People's University of Bangladesh,2017,Others,0.0,0.0,0.0
Asian University of Bangladesh,2017,Others,0.0,0.0,0.0
University of Asia Pacific,2017,Others,0.0,0.0,0.0
East West University,2017,Others,1.0,0.0,1.0
Bangabandhu Sheikh Mujib Medical University,2017,Others,0.0,0.0,0.0
Bangabandhu Sheikh Mujibur Rahman Agricultural University,2017,Others,0.0,0.0,0.0
Gono Bishwabidyalay,2017,Others,0.0,0.0,0.0
"Hajee Mohammad Danesh Science and Technology University, Dinajpur",2017,Bachelors,4953.0,2987.0,7940.0
Mawlana Bhashani Science and Technology University,2017,Bachelors,3047.0,1849.0,4896.0
Rangamati Science and Technology University,2017,Bachelors,192.0,72.0,264.0
BRAC University,2017,Bachelors,4311.0,2864.0,7175.0
Bangladesh University,2017,Bachelors,3871.0,936.0,4807.0
Manarat International University,2017,Bachelors,1139.0,897.0,2036.0
"BGC Trust University Bangladesh, Chittagong",2017,Bachelors,2690.0,978.0,3668.0
"Premier University, Chittagong",2017,Bachelors,4023.0,2561.0,6584.0
"Sylhet International University, Sylhet",2017,Bachelors,987.0,496.0,1483.0
"Leading University, Sylhet",2017,Bachelors,2073.0,1375.0,3448.0
Sher-e-Bangla Agricultural University,2017,Bachelors,1953.0,1483.0,3436.0
IBAIS University,2017,Bachelors,421.0,93.0,514.0
Daffodil International University,2017,Bachelors,12320.0,3415.0,15735.0
"Hajee Mohammad Danesh Science and Technology University, Dinajpur",2017,Masters,724.0,375.0,1099.0
Mawlana Bhashani Science and Technology University,2017,Masters,305.0,115.0,420.0
Rangamati Science and Technology University,2017,Masters,0.0,0.0,0.0
BRAC University,2017,Masters,690.0,608.0,1298.0
Bangladesh University,2017,Masters,567.0,164.0,731.0
Manarat International University,2017,Masters,320.0,218.0,538.0
"BGC Trust University Bangladesh, Chittagong",2017,Masters,0.0,0.0,0.0
"Premier University, Chittagong",2017,Masters,622.0,434.0,1056.0
"Sylhet International University, Sylhet",2017,Masters,233.0,127.0,360.0
"Leading University, Sylhet",2017,Masters,467.0,240.0,707.0
Sher-e-Bangla Agricultural University,2017,Masters,0.0,0.0,0.0
IBAIS University,2017,Masters,20.0,4.0,24.0
Daffodil International University,2017,Masters,645.0,265.0,910.0
"Hajee Mohammad Danesh Science and Technology University, Dinajpur",2017,MPhil,0.0,0.0,0.0
Mawlana Bhashani Science and Technology University,2017,MPhil,0.0,0.0,0.0
Rangamati Science and Technology University,2017,MPhil,0.0,0.0,0.0
BRAC University,2017,MPhil,0.0,0.0,0.0
Bangladesh University,2017,MPhil,0.0,0.0,0.0
Manarat International University,2017,MPhil,0.0,0.0,0.0
"BGC Trust University Bangladesh, Chittagong",2017,MPhil,0.0,0.0,0.0
"Premier University, Chittagong",2017,MPhil,0.0,0.0,0.0
"Sylhet International University, Sylhet",2017,MPhil,0.0,0.0,0.0
"Leading University, Sylhet",2017,MPhil,0.0,0.0,0.0
Sher-e-Bangla Agricultural University,2017,MPhil,0.0,0.0,0.0
IBAIS University,2017,MPhil,0.0,0.0,0.0
Daffodil International University,2017,MPhil,0.0,0.0,0.0
"Hajee Mohammad Danesh Science and Technology University, Dinajpur",2017,PhD,28.0,6.0,34.0
Mawlana Bhashani Science and Technology University,2017,PhD,0.0,0.0,0.0
Rangamati Science and Technology University,2017,PhD,0.0,0.0,0.0
BRAC University,2017,PhD,0.0,0.0,0.0
Bangladesh University,2017,PhD,0.0,0.0,0.0
Manarat International University,2017,PhD,0.0,0.0,0.0
"BGC Trust University Bangladesh, Chittagong",2017,PhD,0.0,0.0,0.0
"Premier University, Chittagong",2017,PhD,0.0,0.0,0.0
"Sylhet International University, Sylhet",2017,PhD,0.0,0.0,0.0
"Leading University, Sylhet",2017,PhD,0.0,0.0,0.0
Sher-e-Bangla Agricultural University,2017,PhD,0.0,0.0,0.0
IBAIS University,2017,PhD,0.0,0.0,0.0
Daffodil International University,2017,PhD,0.0,0.0,0.0
"Hajee Mohammad Danesh Science and Technology University, Dinajpur",2017,Others,0.0,0.0,0.0
Mawlana Bhashani Science and Technology University,2017,Others,0.0,0.0,0.0
Rangamati Science and Technology University,2017,Others,0.0,0.0,0.0
BRAC University,2017,Others,0.0,269.0,269.0
Bangladesh University,2017,Others,0.0,0.0,0.0
Manarat International University,2017,Others,0.0,0.0,0.0
"BGC Trust University Bangladesh, Chittagong",2017,Others,0.0,0.0,0.0
"Premier University, Chittagong",2017,Others,0.0,0.0,0.0
"Sylhet International University, Sylhet",2017,Others,0.0,0.0,0.0
"Leading University, Sylhet",2017,Others,0.0,0.0,0.0
Sher-e-Bangla Agricultural University,2017,Others,0.0,0.0,0.0
IBAIS University,2017,Others,0.0,0.0,0.0
Daffodil International University,2017,Others,0.0,0.0,0.0
Southeast University,2017,Bachelors,5176.0,1851.0,7027.0
Patuakhali Science and Technology University,2017,Bachelors,1974.0,1025.0,2999.0
"Stamford University, Bangladesh",2017,Bachelors,4717.0,1756.0,6473.0
City University,2017,Bachelors,6320.0,1011.0,7331.0
University of Development Alternative,2017,Bachelors,1764.0,1215.0,2979.0
State University of Bangladesh,2017,Bachelors,1815.0,901.0,2716.0
Prime University,2017,Bachelors,1915.0,477.0,2392.0
Northern University Bangladesh,2017,Bachelors,4180.0,864.0,5044.0
Royal University of Dhaka,2017,Bachelors,1108.0,204.0,1312.0
Dhaka University of Engineering & Technology,2017,Bachelors,2690.0,216.0,2906.0
"Southern University Bangladesh, Chittagong",2017,Bachelors,529.0,281.0,810.0
University of Information Technology & Sciences,2017,Bachelors,187.0,22.0,209.0
Green University of Bangladesh,2017,Bachelors,2601.0,692.0,3293.0
Uttara University,2017,Bachelors,5801.0,1842.0,7643.0
University of South Asia,2017,Bachelors,2012.0,149.0,2161.0
Southeast University,2017,Masters,1081.0,468.0,1549.0
Patuakhali Science and Technology University,2017,Masters,0.0,0.0,0.0
"Stamford University, Bangladesh",2017,Masters,714.0,472.0,1186.0
City University,2017,Masters,0.0,0.0,0.0
University of Development Alternative,2017,Masters,464.0,253.0,717.0
State University of Bangladesh,2017,Masters,532.0,284.0,816.0
Prime University,2017,Masters,298.0,136.0,434.0
Northern University Bangladesh,2017,Masters,636.0,449.0,1085.0
Royal University of Dhaka,2017,Masters,331.0,86.0,417.0
Dhaka University of Engineering & Technology,2017,Masters,467.0,41.0,508.0
"Southern University Bangladesh, Chittagong",2017,Masters,477.0,155.0,632.0
University of Information Technology & Sciences,2017,Masters,37.0,15.0,52.0
Green University of Bangladesh,2017,Masters,207.0,104.0,311.0
Uttara University,2017,Masters,1218.0,388.0,1606.0
University of South Asia,2017,Masters,197.0,40.0,237.0
Southeast University,2017,MPhil,0.0,0.0,0.0
Patuakhali Science and Technology University,2017,MPhil,0.0,0.0,0.0
"Stamford University, Bangladesh",2017,MPhil,0.0,0.0,0.0
City University,2017,MPhil,0.0,0.0,0.0
University of Development Alternative,2017,MPhil,0.0,0.0,0.0
State University of Bangladesh,2017,MPhil,0.0,0.0,0.0
Prime University,2017,MPhil,0.0,0.0,0.0
Northern University Bangladesh,2017,MPhil,0.0,0.0,0.0
Royal University of Dhaka,2017,MPhil,0.0,0.0,0.0
Dhaka University of Engineering & Technology,2017,MPhil,29.0,8.0,37.0
"Southern University Bangladesh, Chittagong",2017,MPhil,0.0,0.0,0.0
University of Information Technology & Sciences,2017,MPhil,0.0,0.0,0.0
Green University of Bangladesh,2017,MPhil,0.0,0.0,0.0
Uttara University,2017,MPhil,0.0,0.0,0.0
University of South Asia,2017,MPhil,0.0,0.0,0.0
Southeast University,2017,PhD,0.0,0.0,0.0
Patuakhali Science and Technology University,2017,PhD,0.0,0.0,0.0
"Stamford University, Bangladesh",2017,PhD,0.0,0.0,0.0
City University,2017,PhD,0.0,0.0,0.0
University of Development Alternative,2017,PhD,0.0,0.0,0.0
State University of Bangladesh,2017,PhD,0.0,0.0,0.0
Prime University,2017,PhD,0.0,0.0,0.0
Northern University Bangladesh,2017,PhD,0.0,0.0,0.0
Royal University of Dhaka,2017,PhD,0.0,0.0,0.0
Dhaka University of Engineering & Technology,2017,PhD,39.0,0.0,39.0
"Southern University Bangladesh, Chittagong",2017,PhD,0.0,0.0,0.0
University of Information Technology & Sciences,2017,PhD,0.0,0.0,0.0
Green University of Bangladesh,2017,PhD,0.0,0.0,0.0
Uttara University,2017,PhD,0.0,0.0,0.0
University of South Asia,2017,PhD,0.0,0.0,0.0
Southeast University,2017,Others,0.0,0.0,0.0
Patuakhali Science and Technology University,2017,Others,0.0,0.0,0.0
"Stamford University, Bangladesh",2017,Others,0.0,0.0,0.0
City University,2017,Others,0.0,0.0,0.0
University of Development Alternative,2017,Others,0.0,0.0,0.0
State University of Bangladesh,2017,Others,0.0,0.0,0.0
Prime University,2017,Others,0.0,0.0,0.0
Northern University Bangladesh,2017,Others,0.0,0.0,0.0
Royal University of Dhaka,2017,Others,0.0,0.0,0.0
Dhaka University of Engineering & Technology,2017,Others,0.0,0.0,0.0
"Southern University Bangladesh, Chittagong",2017,Others,0.0,0.0,0.0
University of Information Technology & Sciences,2017,Others,0.0,0.0,0.0
Green University of Bangladesh,2017,Others,0.0,0.0,0.0
Uttara University,2017,Others,218.0,76.0,294.0
University of South Asia,2017,Others,34.0,10.0,44.0
Bangladesh University of Business and Technology,2017,Bachelors,5576.0,2149.0,7725.0
"Metropolitan University, Sylhet",2017,Bachelors,1651.0,970.0,2621.0
Khulna University of Engineering and Technology,2017,Bachelors,2449.0,424.0,2873.0
Rajshahi University of Engineering & Technology,2017,Bachelors,2327.0,544.0,2871.0
World University of Bangladesh,2017,Bachelors,3624.0,698.0,4322.0
Eastern University,2017,Bachelors,1844.0,972.0,2816.0
United International University,2017,Bachelors,4176.0,2662.0,6838.0
University of Liberal Arts Bangladesh,2017,Bachelors,2267.0,1574.0,3841.0
Primeasia University,2017,Bachelors,2373.0,831.0,3204.0
Shanto-Mariam University of Creative Technology,2017,Bachelors,2131.0,1449.0,3580.0
The Millennium University,2017,Bachelors,441.0,266.0,707.0
Presidency University,2017,Bachelors,1746.0,309.0,2055.0
Victoria University of Bangladesh,2017,Bachelors,363.0,131.0,494.0
Bangladesh University of Business and Technology,2017,Masters,459.0,364.0,823.0
"Metropolitan University, Sylhet",2017,Masters,125.0,100.0,225.0
Khulna University of Engineering and Technology,2017,Masters,580.0,121.0,701.0
Rajshahi University of Engineering & Technology,2017,Masters,213.0,65.0,278.0
World University of Bangladesh,2017,Masters,172.0,76.0,248.0
Eastern University,2017,Masters,387.0,290.0,677.0
United International University,2017,Masters,544.0,477.0,1021.0
University of Liberal Arts Bangladesh,2017,Masters,318.0,313.0,631.0
Primeasia University,2017,Masters,178.0,81.0,259.0
Shanto-Mariam University of Creative Technology,2017,Masters,357.0,174.0,531.0
The Millennium University,2017,Masters,157.0,47.0,204.0
Presidency University,2017,Masters,123.0,40.0,163.0
Victoria University of Bangladesh,2017,Masters,171.0,65.0,236.0
Bangladesh University of Business and Technology,2017,MPhil,0.0,0.0,0.0
"Metropolitan University, Sylhet",2017,MPhil,0.0,0.0,0.0
Khulna University of Engineering and Technology,2017,MPhil,106.0,13.0,119.0
Rajshahi University of Engineering & Technology,2017,MPhil,13.0,1.0,14.0
World University of Bangladesh,2017,MPhil,0.0,0.0,0.0
Eastern University,2017,MPhil,0.0,0.0,0.0
United International University,2017,MPhil,0.0,0.0,0.0
University of Liberal Arts Bangladesh,2017,MPhil,0.0,0.0,0.0
Primeasia University,2017,MPhil,0.0,0.0,0.0
Shanto-Mariam University of Creative Technology,2017,MPhil,0.0,0.0,0.0
The Millennium University,2017,MPhil,0.0,0.0,0.0
Presidency University,2017,MPhil,0.0,0.0,0.0
Victoria University of Bangladesh,2017,MPhil,0.0,0.0,0.0
Bangladesh University of Business and Technology,2017,PhD,0.0,0.0,0.0
"Metropolitan University, Sylhet",2017,PhD,0.0,0.0,0.0
Khulna University of Engineering and Technology,2017,PhD,54.0,5.0,59.0
Rajshahi University of Engineering & Technology,2017,PhD,14.0,1.0,15.0
World University of Bangladesh,2017,PhD,0.0,0.0,0.0
Eastern University,2017,PhD,0.0,0.0,0.0
United International University,2017,PhD,0.0,0.0,0.0
University of Liberal Arts Bangladesh,2017,PhD,0.0,0.0,0.0
Primeasia University,2017,PhD,0.0,0.0,0.0
Shanto-Mariam University of Creative Technology,2017,PhD,0.0,0.0,0.0
The Millennium University,2017,PhD,0.0,0.0,0.0
Presidency University,2017,PhD,0.0,0.0,0.0
Victoria University of Bangladesh,2017,PhD,0.0,0.0,0.0
Bangladesh University of Business and Technology,2017,Others,0.0,0.0,0.0
"Metropolitan University, Sylhet",2017,Others,0.0,0.0,0.0
Khulna University of Engineering and Technology,2017,Others,0.0,0.0,0.0
Rajshahi University of Engineering & Technology,2017,Others,0.0,0.0,0.0
World University of Bangladesh,2017,Others,0.0,0.0,0.0
Eastern University,2017,Others,0.0,0.0,0.0
United International University,2017,Others,0.0,0.0,0.0
University of Liberal Arts Bangladesh,2017,Others,0.0,0.0,0.0
Primeasia University,2017,Others,0.0,0.0,0.0
Shanto-Mariam University of Creative Technology,2017,Others,0.0,0.0,0.0
The Millennium University,2017,Others,0.0,0.0,0.0
Presidency University,2017,Others,0.0,0.0,0.0
Victoria University of Bangladesh,2017,Others,0.0,0.0,0.0
Chittagong University of Engineering & Technology,2017,Bachelors,2162.0,498.0,2660.0
Atish Dipankar University of Science & Technology,2017,Bachelors,3011.0,620.0,3631.0
Jagannath University,2017,Bachelors,9814.0,3910.0,13724.0
Bangladesh Islami University,2017,Bachelors,1619.0,1112.0,2731.0
ASA University Bangladesh,2017,Bachelors,1071.0,554.0,1625.0
"East Delta University, Chittagong",2017,Bachelors,1021.0,439.0,1460.0
"Exim Bank Agricultural University, Bangladesh",2017,Bachelors,124.0,61.0,185.0
Comilla University,2017,Bachelors,2216.0,1262.0,3478.0
Chittagong Veterinary and Animal Sciences University,2017,Bachelors,514.0,400.0,914.0
Noakhali Science & Technology University,2017,Bachelors,3816.0,1886.0,5702.0
Sylhet Agricultural University,2017,Bachelors,836.0,556.0,1392.0
Jatiya Kabi Kazi Nazrul Islam University,2017,Bachelors,2028.0,1360.0,3388.0
Jessore University of Science and Technology,2017,Bachelors,2328.0,1068.0,3396.0
Chittagong University of Engineering & Technology,2017,Masters,840.0,241.0,1081.0
Atish Dipankar University of Science & Technology,2017,Masters,323.0,187.0,510.0
Jagannath University,2017,Masters,2516.0,787.0,3303.0
Bangladesh Islami University,2017,Masters,497.0,179.0,676.0
ASA University Bangladesh,2017,Masters,462.0,197.0,659.0
"East Delta University, Chittagong",2017,Masters,119.0,67.0,186.0
"Exim Bank Agricultural University, Bangladesh",2017,Masters,33.0,9.0,42.0
Comilla University,2017,Masters,278.0,142.0,420.0
Chittagong Veterinary and Animal Sciences University,2017,Masters,191.0,140.0,331.0
Noakhali Science & Technology University,2017,Masters,116.0,57.0,173.0
Sylhet Agricultural University,2017,Masters,238.0,132.0,370.0
Jatiya Kabi Kazi Nazrul Islam University,2017,Masters,475.0,296.0,771.0
Jessore University of Science and Technology,2017,Masters,62.0,54.0,116.0
Chittagong University of Engineering & Technology,2017,MPhil,135.0,35.0,170.0
Atish Dipankar University of Science & Technology,2017,MPhil,0.0,0.0,0.0
Jagannath University,2017,MPhil,0.0,0.0,0.0
Bangladesh Islami University,2017,MPhil,0.0,0.0,0.0
ASA University Bangladesh,2017,MPhil,0.0,0.0,0.0
"East Delta University, Chittagong",2017,MPhil,0.0,0.0,0.0
"Exim Bank Agricultural University, Bangladesh",2017,MPhil,0.0,0.0,0.0
Comilla University,2017,MPhil,0.0,0.0,0.0
Chittagong Veterinary and Animal Sciences University,2017,MPhil,0.0,0.0,0.0
Noakhali Science & Technology University,2017,MPhil,0.0,0.0,0.0
Sylhet Agricultural University,2017,MPhil,0.0,0.0,0.0
Jatiya Kabi Kazi Nazrul Islam University,2017,MPhil,0.0,0.0,0.0
Jessore University of Science and Technology,2017,MPhil,3.0,0.0,3.0
Chittagong University of Engineering & Technology,2017,PhD,39.0,11.0,50.0
Atish Dipankar University of Science & Technology,2017,PhD,0.0,0.0,0.0
Jagannath University,2017,PhD,0.0,0.0,0.0
Bangladesh Islami University,2017,PhD,0.0,0.0,0.0
ASA University Bangladesh,2017,PhD,0.0,0.0,0.0
"East Delta University, Chittagong",2017,PhD,0.0,0.0,0.0
"Exim Bank Agricultural University, Bangladesh",2017,PhD,0.0,0.0,0.0
Comilla University,2017,PhD,0.0,0.0,0.0
Chittagong Veterinary and Animal Sciences University,2017,PhD,0.0,0.0,0.0
Noakhali Science & Technology University,2017,PhD,0.0,0.0,0.0
Sylhet Agricultural University,2017,PhD,0.0,0.0,0.0
Jatiya Kabi Kazi Nazrul Islam University,2017,PhD,0.0,0.0,0.0
Jessore University of Science and Technology,2017,PhD,4.0,0.0,4.0
Chittagong University of Engineering & Technology,2017,Others,12.0,2.0,14.0
Atish Dipankar University of Science & Technology,2017,Others,0.0,0.0,0.0
Jagannath University,2017,Others,0.0,0.0,0.0
Bangladesh Islami University,2017,Others,0.0,0.0,0.0
ASA University Bangladesh,2017,Others,0.0,0.0,0.0
"East Delta University, Chittagong",2017,Others,0.0,0.0,0.0
"Exim Bank Agricultural University, Bangladesh",2017,Others,0.0,0.0,0.0
Comilla University,2017,Others,0.0,0.0,0.0
Chittagong Veterinary and Animal Sciences University,2017,Others,0.0,0.0,0.0
Noakhali Science & Technology University,2017,Others,0.0,0.0,0.0
Sylhet Agricultural University,2017,Others,0.0,0.0,0.0
Jatiya Kabi Kazi Nazrul Islam University,2017,Others,0.0,0.0,0.0
Jessore University of Science and Technology,2017,Others,0.0,0.0,0.0
"Begum Rokeya University, Rangpur",2017,Bachelors,0.0,0.0,0.0
Bangladesh University of Professionals,2017,Bachelors,1996.0,1434.0,3430.0
Pabna University of Science and Technology,2017,Bachelors,2044.0,876.0,2920.0
Bangladesh University of Textiles,2017,Bachelors,1884.0,288.0,2172.0
Khwaja Yunus Ali University,2017,Bachelors,0.0,0.0,0.0
Bangabandhu Sheikh Mujibur Rahaman Science & Technology University,2017,Bachelors,3847.0,1667.0,5514.0
Bangladesh University of Health Sciences,2017,Bachelors,31.0,13.0,44.0
University of Barisal,2017,Bachelors,4241.0,2411.0,6652.0
Z. H. Sikder University of Science & Technology,2017,Bachelors,588.0,323.0,911.0
"North Western University, Khulna",2017,Bachelors,2692.0,1035.0,3727.0
Varendra University,2017,Bachelors,2597.0,1496.0,4093.0
Britannia University,2017,Bachelors,1204.0,679.0,1883.0
North East University Bangladesh,2017,Bachelors,615.0,266.0,881.0
European University of Bangladesh,2017,Bachelors,455.0,71.0,526.0
"Begum Rokeya University, Rangpur",2017,Masters,0.0,0.0,0.0
Bangladesh University of Professionals,2017,Masters,436.0,182.0,618.0
Pabna University of Science and Technology,2017,Masters,112.0,46.0,158.0
Bangladesh University of Textiles,2017,Masters,272.0,38.0,310.0
Khwaja Yunus Ali University,2017,Masters,0.0,0.0,0.0
Bangabandhu Sheikh Mujibur Rahaman Science & Technology University,2017,Masters,0.0,0.0,0.0
Bangladesh University of Health Sciences,2017,Masters,0.0,0.0,0.0
University of Barisal,2017,Masters,0.0,0.0,0.0
Z. H. Sikder University of Science & Technology,2017,Masters,49.0,29.0,78.0
"North Western University, Khulna",2017,Masters,92.0,49.0,141.0
Varendra University,2017,Masters,131.0,122.0,253.0
Britannia University,2017,Masters,178.0,77.0,255.0
North East University Bangladesh,2017,Masters,195.0,53.0,248.0
European University of Bangladesh,2017,Masters,62.0,11.0,73.0
"Begum Rokeya University, Rangpur",2017,MPhil,0.0,0.0,0.0
Bangladesh University of Professionals,2017,MPhil,233.0,106.0,339.0
Pabna University of Science and Technology,2017,MPhil,9.0,2.0,11.0
Bangladesh University of Textiles,2017,MPhil,0.0,0.0,0.0
Khwaja Yunus Ali University,2017,MPhil,0.0,0.0,0.0
Bangabandhu Sheikh Mujibur Rahaman Science & Technology University,2017,MPhil,0.0,0.0,0.0
Bangladesh University of Health Sciences,2017,MPhil,0.0,0.0,0.0
University of Barisal,2017,MPhil,0.0,0.0,0.0
Z. H. Sikder University of Science & Technology,2017,MPhil,0.0,0.0,0.0
"North Western University, Khulna",2017,MPhil,0.0,0.0,0.0
Varendra University,2017,MPhil,0.0,0.0,0.0
Britannia University,2017,MPhil,0.0,0.0,0.0
North East University Bangladesh,2017,MPhil,0.0,0.0,0.0
European University of Bangladesh,2017,MPhil,0.0,0.0,0.0
"Begum Rokeya University, Rangpur",2017,PhD,0.0,0.0,0.0
Bangladesh University of Professionals,2017,PhD,239.0,75.0,314.0
Pabna University of Science and Technology,2017,PhD,11.0,0.0,11.0
Bangladesh University of Textiles,2017,PhD,0.0,0.0,0.0
Khwaja Yunus Ali University,2017,PhD,0.0,0.0,0.0
Bangabandhu Sheikh Mujibur Rahaman Science & Technology University,2017,PhD,0.0,0.0,0.0
Bangladesh University of Health Sciences,2017,PhD,0.0,0.0,0.0
University of Barisal,2017,PhD,0.0,0.0,0.0
Z. H. Sikder University of Science & Technology,2017,PhD,0.0,0.0,0.0
"North Western University, Khulna",2017,PhD,0.0,0.0,0.0
Varendra University,2017,PhD,0.0,0.0,0.0
Britannia University,2017,PhD,0.0,0.0,0.0
North East University Bangladesh,2017,PhD,0.0,0.0,0.0
European University of Bangladesh,2017,PhD,0.0,0.0,0.0
"Begum Rokeya University, Rangpur",2017,Others,0.0,0.0,0.0
Bangladesh University of Professionals,2017,Others,0.0,0.0,0.0
Pabna University of Science and Technology,2017,Others,0.0,0.0,0.0
Bangladesh University of Textiles,2017,Others,0.0,0.0,0.0
Khwaja Yunus Ali University,2017,Others,0.0,0.0,0.0
Bangabandhu Sheikh Mujibur Rahaman Science & Technology University,2017,Others,0.0,0.0,0.0
Bangladesh University of Health Sciences,2017,Others,0.0,0.0,0.0
University of Barisal,2017,Others,0.0,0.0,0.0
Z. H. Sikder University of Science & Technology,2017,Others,0.0,0.0,0.0
"North Western University, Khulna",2017,Others,0.0,0.0,0.0
Varendra University,2017,Others,0.0,0.0,0.0
Britannia University,2017,Others,0.0,0.0,0.0
North East University Bangladesh,2017,Others,1.0,0.0,1.0
European University of Bangladesh,2017,Others,0.0,0.0,0.0
Hamdard University Bangladesh,2017,Bachelors,440.0,241.0,681.0
First Capital University of  Bangladesh,2017,Bachelors,1288.0,337.0,1625.0
Port City International University,2017,Bachelors,0.0,0.0,0.0
Sonargaon University,2017,Bachelors,3943.0,775.0,4718.0
BGMEA University of Fashion & Technology,2017,Bachelors,4050.0,569.0,4619.0
"Ishakha International University, Bangladesh",2017,Bachelors,330.0,161.0,491.0
Feni University,2017,Bachelors,402.0,160.0,562.0
Times University Bangladesh,2017,Bachelors,0.0,0.0,0.0
Ranada Prasad Shaha University,2017,Bachelors,312.0,286.0,598.0
Notre Dame University Bangladesh,2017,Bachelors,1440.0,1108.0,2548.0
North Bengal International University,2017,Bachelors,1313.0,429.0,1742.0
German University Bangladesh,2017,Bachelors,0.0,0.0,0.0
Fareast International University,2017,Bachelors,721.0,72.0,793.0
Coxs Bazar International University,2017,Bachelors,610.0,214.0,824.0
Hamdard University Bangladesh,2017,Masters,27.0,10.0,37.0
First Capital University of  Bangladesh,2017,Masters,190.0,72.0,262.0
Port City International University,2017,Masters,0.0,0.0,0.0
Sonargaon University,2017,Masters,877.0,112.0,989.0
BGMEA University of Fashion & Technology,2017,Masters,449.0,72.0,521.0
"Ishakha International University, Bangladesh",2017,Masters,12.0,11.0,23.0
Feni University,2017,Masters,52.0,7.0,59.0
Times University Bangladesh,2017,Masters,0.0,0.0,0.0
Ranada Prasad Shaha University,2017,Masters,0.0,0.0,0.0
Notre Dame University Bangladesh,2017,Masters,0.0,0.0,0.0
North Bengal International University,2017,Masters,372.0,105.0,477.0
German University Bangladesh,2017,Masters,0.0,0.0,0.0
Fareast International University,2017,Masters,172.0,26.0,198.0
Coxs Bazar International University,2017,Masters,165.0,17.0,182.0
Hamdard University Bangladesh,2017,MPhil,0.0,0.0,0.0
First Capital University of  Bangladesh,2017,MPhil,0.0,0.0,0.0
Port City International University,2017,MPhil,0.0,0.0,0.0
Sonargaon University,2017,MPhil,0.0,0.0,0.0
BGMEA University of Fashion & Technology,2017,MPhil,0.0,0.0,0.0
"Ishakha International University, Bangladesh",2017,MPhil,0.0,0.0,0.0
Feni University,2017,MPhil,0.0,0.0,0.0
Times University Bangladesh,2017,MPhil,0.0,0.0,0.0
Ranada Prasad Shaha University,2017,MPhil,0.0,0.0,0.0
Notre Dame University Bangladesh,2017,MPhil,0.0,0.0,0.0
North Bengal International University,2017,MPhil,0.0,0.0,0.0
German University Bangladesh,2017,MPhil,0.0,0.0,0.0
Fareast International University,2017,MPhil,0.0,0.0,0.0
Coxs Bazar International University,2017,MPhil,0.0,0.0,0.0
Hamdard University Bangladesh,2017,PhD,0.0,0.0,0.0
First Capital University of  Bangladesh,2017,PhD,0.0,0.0,0.0
Port City International University,2017,PhD,0.0,0.0,0.0
Sonargaon University,2017,PhD,0.0,0.0,0.0
BGMEA University of Fashion & Technology,2017,PhD,0.0,0.0,0.0
"Ishakha International University, Bangladesh",2017,PhD,0.0,0.0,0.0
Feni University,2017,PhD,0.0,0.0,0.0
Times University Bangladesh,2017,PhD,0.0,0.0,0.0
Ranada Prasad Shaha University,2017,PhD,0.0,0.0,0.0
Notre Dame University Bangladesh,2017,PhD,0.0,0.0,0.0
North Bengal International University,2017,PhD,0.0,0.0,0.0
German University Bangladesh,2017,PhD,0.0,0.0,0.0
Fareast International University,2017,PhD,0.0,0.0,0.0
Coxs Bazar International University,2017,PhD,0.0,0.0,0.0
Hamdard University Bangladesh,2017,Others,0.0,0.0,0.0
First Capital University of  Bangladesh,2017,Others,0.0,0.0,0.0
Port City International University,2017,Others,0.0,0.0,0.0
Sonargaon University,2017,Others,0.0,0.0,0.0
BGMEA University of Fashion & Technology,2017,Others,299.0,19.0,318.0
"Ishakha International University, Bangladesh",2017,Others,73.0,72.0,145.0
Feni University,2017,Others,67.0,83.0,150.0
Times University Bangladesh,2017,Others,0.0,0.0,0.0
Ranada Prasad Shaha University,2017,Others,0.0,0.0,0.0
Notre Dame University Bangladesh,2017,Others,0.0,0.0,0.0
North Bengal International University,2017,Others,7.0,2.0,9.0
German University Bangladesh,2017,Others,0.0,0.0,0.0
Fareast International University,2017,Others,0.0,0.0,0.0
Coxs Bazar International University,2017,Others,105.0,65.0,170.0
Chittagong Independent University (CIU),2017,Bachelors,429.0,414.0,843.0
"Bangabandhu Sheikh Mujibur Rahman Maritime University, Bangladesh",2017,Bachelors,0.0,0.0,0.0
Islamic Arabic University,2017,Bachelors,0.0,0.0,0.0
CCN University of Science & Technology,2017,Bachelors,131.0,53.0,184.0
Bangladesh Army University of Engineering and Technology (BAUET) Qadirabad,2017,Bachelors,799.0,272.0,1071.0
Sheikh Fazilatunnesa Mujib University,2017,Bachelors,85.0,65.0,150.0
"Bangladesh Army International University of Science & Technology, Comilla",2017,Bachelors,556.0,315.0,871.0
"Northern University of Business and Technology, Khulna",2017,Bachelors,0.0,0.0,0.0
N.P.I University of Bangladesh,2017,Bachelors,0.0,0.0,0.0
Global University Bangladesh,2017,Bachelors,0.0,0.0,0.0
Chittagong Independent University (CIU),2017,Masters,247.0,120.0,367.0
"Bangabandhu Sheikh Mujibur Rahman Maritime University, Bangladesh",2017,Masters,45.0,3.0,48.0
Islamic Arabic University,2017,Masters,0.0,0.0,0.0
CCN University of Science & Technology,2017,Masters,8.0,0.0,8.0
Bangladesh Army University of Engineering and Technology (BAUET) Qadirabad,2017,Masters,0.0,0.0,0.0
Sheikh Fazilatunnesa Mujib University,2017,Masters,8.0,1.0,9.0
"Bangladesh Army International University of Science & Technology, Comilla",2017,Masters,0.0,0.0,0.0
"Northern University of Business and Technology, Khulna",2017,Masters,0.0,0.0,0.0
N.P.I University of Bangladesh,2017,Masters,0.0,0.0,0.0
Global University Bangladesh,2017,Masters,0.0,0.0,0.0
Chittagong Independent University (CIU),2017,MPhil,0.0,0.0,0.0
"Bangabandhu Sheikh Mujibur Rahman Maritime University, Bangladesh",2017,MPhil,0.0,0.0,0.0
Islamic Arabic University,2017,MPhil,0.0,0.0,0.0
CCN University of Science & Technology,2017,MPhil,0.0,0.0,0.0
Bangladesh Army University of Engineering and Technology (BAUET) Qadirabad,2017,MPhil,0.0,0.0,0.0
Sheikh Fazilatunnesa Mujib University,2017,MPhil,0.0,0.0,0.0
"Bangladesh Army International University of Science & Technology, Comilla",2017,MPhil,0.0,0.0,0.0
"Northern University of Business and Technology, Khulna",2017,MPhil,0.0,0.0,0.0
N.P.I University of Bangladesh,2017,MPhil,0.0,0.0,0.0
Global University Bangladesh,2017,MPhil,0.0,0.0,0.0
Chittagong Independent University (CIU),2017,PhD,0.0,0.0,0.0
"Bangabandhu Sheikh Mujibur Rahman Maritime University, Bangladesh",2017,PhD,0.0,0.0,0.0
Islamic Arabic University,2017,PhD,0.0,0.0,0.0
CCN University of Science & Technology,2017,PhD,0.0,0.0,0.0
Bangladesh Army University of Engineering and Technology (BAUET) Qadirabad,2017,PhD,0.0,0.0,0.0
Sheikh Fazilatunnesa Mujib University,2017,PhD,0.0,0.0,0.0
"Bangladesh Army International University of Science & Technology, Comilla",2017,PhD,0.0,0.0,0.0
"Northern University of Business and Technology, Khulna",2017,PhD,0.0,0.0,0.0
N.P.I University of Bangladesh,2017,PhD,0.0,0.0,0.0
Global University Bangladesh,2017,PhD,0.0,0.0,0.0
Chittagong Independent University (CIU),2017,Others,0.0,0.0,0.0
"Bangabandhu Sheikh Mujibur Rahman Maritime University, Bangladesh",2017,Others,0.0,0.0,0.0
Islamic Arabic University,2017,Others,0.0,0.0,0.0
CCN University of Science & Technology,2017,Others,0.0,0.0,0.0
Bangladesh Army University of Engineering and Technology (BAUET) Qadirabad,2017,Others,0.0,0.0,0.0
Sheikh Fazilatunnesa Mujib University,2017,Others,41.0,58.0,99.0
"Bangladesh Army International University of Science & Technology, Comilla",2017,Others,0.0,0.0,0.0
"Northern University of Business and Technology, Khulna",2017,Others,0.0,0.0,0.0
N.P.I University of Bangladesh,2017,Others,0.0,0.0,0.0
Global University Bangladesh,2017,Others,0.0,0.0,0.0
"Bangladesh Army University of Science and Technology (BAUST), Saidpur",2017,Bachelors,987.0,513.0,1500.0
University of Global Village,2017,Bachelors,0.0,0.0,0.0
"Rabindra University, Bangladesh",2017,Bachelors,88.0,37.0,125.0
"Bangladesh Army University of Science and Technology (BAUST), Saidpur",2017,Masters,0.0,0.0,0.0
University of Global Village,2017,Masters,0.0,0.0,0.0
"Rabindra University, Bangladesh",2017,Masters,0.0,0.0,0.0
"Bangladesh Army University of Science and Technology (BAUST), Saidpur",2017,MPhil,0.0,0.0,0.0
University of Global Village,2017,MPhil,0.0,0.0,0.0
"Rabindra University, Bangladesh",2017,MPhil,0.0,0.0,0.0
"Bangladesh Army University of Science and Technology (BAUST), Saidpur",2017,PhD,0.0,0.0,0.0
University of Global Village,2017,PhD,0.0,0.0,0.0
"Rabindra University, Bangladesh",2017,PhD,0.0,0.0,0.0
"Bangladesh Army University of Science and Technology (BAUST), Saidpur",2017,Others,0.0,0.0,0.0
University of Global Village,2017,Others,0.0,0.0,0.0
"Rabindra University, Bangladesh",2017,Others,0.0,0.0,0.0
